…
We will later exclude objects that are not appartments.


```r
count(d,location,sort=TRUE)
```

```
## # A tibble: 3,130 x 2
##    location              n
##    <chr>             <int>
##  1 zurich             1270
##  2 bâle               1246
##  3 lausanne           1189
##  4 berne              1068
##  5 genève             1021
##  6 st-gall             937
##  7 bienne              704
##  8 la chaux-de-fonds   636
##  9 lucerne             562
## 10 fribourg            531
## # … with 3,120 more rows
```
…
